{
    "variable": [
        {
            "id": "baseUrl",
            "key": "baseUrl",
            "type": "string",
            "name": "string",
            "value": "http:\/\/localhost"
        }
    ],
    "info": {
        "name": "portfolio-laravel",
        "_postman_id": "8d5d47af-6ae4-48a6-b5dd-6deed175ed45",
        "description": "",
        "schema": "https:\/\/schema.getpostman.com\/json\/collection\/v2.1.0\/collection.json"
    },
    "item": [
        {
            "name": "Endpoints",
            "description": "",
            "item": [
                {
                    "name": "GET api\/users",
                    "request": {
                        "url": {
                            "host": "{{baseUrl}}",
                            "path": "api\/users",
                            "query": [],
                            "raw": "{{baseUrl}}\/api\/users"
                        },
                        "method": "GET",
                        "header": [
                            {
                                "key": "Content-Type",
                                "value": "application\/json"
                            },
                            {
                                "key": "Accept",
                                "value": "application\/json"
                            }
                        ],
                        "body": null,
                        "description": "",
                        "auth": {
                            "type": "noauth"
                        }
                    },
                    "response": [
                        {
                            "header": [
                                {
                                    "key": "cache-control",
                                    "value": "no-cache, private"
                                },
                                {
                                    "key": "content-type",
                                    "value": "application\/json"
                                },
                                {
                                    "key": "x-ratelimit-limit",
                                    "value": "60"
                                },
                                {
                                    "key": "x-ratelimit-remaining",
                                    "value": "59"
                                },
                                {
                                    "key": "access-control-allow-origin",
                                    "value": "*"
                                }
                            ],
                            "code": 200,
                            "body": "{\"current_page\":1,\"data\":[{\"id\":1,\"username\":\"nour it\",\"slug\":\"nour-it\",\"email\":\"reply.nourit@gmail.com\",\"password\":\"$2y$12$uFEFimQVdzOzRViMmmg8D.5Qs6Ed5RnaHMAf3\\\/Pqne1nz9cEi\\\/mpu\",\"token\":null,\"confirmation_token\":null,\"delete_token\":null,\"google_id\":null,\"google_token\":null,\"google_refresh_token\":null,\"ip\":\"172.19.0.1\",\"create_at\":null,\"update_at\":null,\"validate_at\":\"2024-07-09 11:01:35\",\"delete_at\":null,\"lastlogin_at\":\"2024-07-11 08:17:48\",\"post\":\"Web and Mobile App developer\",\"bio\":\"\\n                        <p>Hi, I'm Nouroudine, a web developer with over fourth years of experience in the industry. I specialize in\\n                            front-end development and have a strong foundation in HTML, CSS, and JavaScript. I am also proficient in\\n                            popular web development framework like React.<\\\/p>\\n                        <p>My passion for web development extends beyond my professional work. I am an active contributor to several\\n                            open-source projects and enjoy experimenting with new technologies. In my free time, you can find me\\n                            attending hackathons or working on personal projects to hone my skills.<\\\/p>\\n                        <p>I'm excited to join your team and contribute to building innovative and impactful web applications.<\\\/p>\\n                   \",\"about\":\"<p style=\\\"opacity: 1;\\\">In my previous role, I was responsible for building and maintaining a suite of web\\n                applications for a large\\n                e-commerce company. I worked closely with designers and product managers to ensure that the applications\\n                were user-friendly and met the needs of our customers. I also collaborated with back-end developers to\\n                integrate our front-end code with the company's API.<\\\/p>\"},{\"id\":2,\"username\":\"Camden D'Amore\",\"slug\":\"camden-damore\",\"email\":\"beulah.dibbert@weimann.com\",\"password\":\"$2y$12$FKw8CzePngu\\\/dzVZg05E7eF9Qu.PlYpC.ZgUze23ZCkeqBOcIVcKS\",\"token\":null,\"confirmation_token\":null,\"delete_token\":null,\"google_id\":null,\"google_token\":null,\"google_refresh_token\":null,\"ip\":null,\"create_at\":null,\"update_at\":null,\"validate_at\":\"2003-11-30 00:00:00\",\"delete_at\":null,\"lastlogin_at\":null,\"post\":null,\"bio\":\"<p>Ea ad et fuga magnam nobis. Eos nobis et et esse. Cumque sed nihil molestias voluptas corrupti ullam rem.\\n\\nQuidem et harum hic aliquid suscipit. Ullam ut est suscipit facilis praesentium. Rerum et laborum excepturi fuga.\\n\\nCorrupti consequatur minus repudiandae aliquid sed est labore. Repellendus voluptas veniam vero et. Cupiditate eaque itaque dolor enim corporis.<\\\/p>\",\"about\":\"<p>Porro aut et quibusdam similique et quia. Quo laborum ea dignissimos. Consequuntur est dolores deleniti et eligendi libero. Itaque voluptatum ad aut numquam autem.\\n\\nDeserunt voluptatem aliquam qui autem labore minus consequuntur. Id accusamus et suscipit eius. Laudantium corrupti facilis pariatur ipsum debitis.\\n\\nQuasi consequatur nostrum illum ut qui. Odit officiis consequatur deleniti vitae nobis libero tempora cupiditate. Non et enim qui vel amet ea ad.<\\\/p>\"},{\"id\":3,\"username\":\"Lesly Kessler\",\"slug\":\"lesly-kessler\",\"email\":\"jeramie.schneider@yahoo.com\",\"password\":\"$2y$12$gWmgxvamIjvsHqanpCo9U.GXL0SeMDkJOKpnhLURWsvAMZbBuss5K\",\"token\":null,\"confirmation_token\":null,\"delete_token\":null,\"google_id\":null,\"google_token\":null,\"google_refresh_token\":null,\"ip\":null,\"create_at\":null,\"update_at\":null,\"validate_at\":\"2001-09-03 00:00:00\",\"delete_at\":null,\"lastlogin_at\":null,\"post\":null,\"bio\":\"<p>Cumque aut molestias deserunt sint eum. Et aliquam voluptas natus et possimus nemo. Ut consectetur ea blanditiis magni voluptatum quae corporis id.\\n\\nRerum numquam accusantium nostrum. Vel recusandae odit reiciendis dolores. Nostrum harum similique incidunt et ad quaerat placeat nemo.\\n\\nDeleniti molestias eligendi aliquam quia officiis quaerat labore. Dolorem est autem voluptas. Et sint sed illum rem id quo. Animi iusto consequatur eum odit dolorem officiis.<\\\/p>\",\"about\":\"<p>Sed fugiat repudiandae quis doloremque nulla illum soluta. Velit et ut quo doloremque alias eum. Placeat necessitatibus aut provident maiores. Corrupti libero illum ut et nihil tempora magni animi. Repellendus ea expedita ut ad est voluptate eveniet aut.\\n\\nUt ratione quas est nemo et sint. Et ut harum reprehenderit rerum reprehenderit ipsum. Et fuga cum voluptatem suscipit.\\n\\nAutem totam et impedit totam vel et. Natus perferendis distinctio atque accusamus. Fugit at est hic eos.<\\\/p>\"},{\"id\":4,\"username\":\"Nicolette Morissette PhD\",\"slug\":\"nicolette-morissette-phd\",\"email\":\"cyril.ritchie@hotmail.com\",\"password\":\"$2y$12$rGg9tvfPCVwhCh7TQ0pEwu8uJYk26EppdWdH0ksBedN5a2uGY4546\",\"token\":null,\"confirmation_token\":null,\"delete_token\":null,\"google_id\":null,\"google_token\":null,\"google_refresh_token\":null,\"ip\":null,\"create_at\":null,\"update_at\":null,\"validate_at\":\"2007-12-07 00:00:00\",\"delete_at\":null,\"lastlogin_at\":null,\"post\":null,\"bio\":\"<p>In omnis est vel enim. Quo explicabo explicabo doloremque debitis suscipit eius. Autem quis itaque tempora sit reiciendis dolorem qui sint. Delectus dolores minus sapiente voluptate.\\n\\nSimilique maiores optio debitis et impedit similique odio. Aliquid non non eum libero voluptas laborum voluptatibus. Consequatur dicta debitis tempore molestiae.\\n\\nQuisquam ab dolores consequatur eligendi cum repellat minus possimus. Iusto est architecto iste. Quis et asperiores et et libero quaerat. Id consequatur non harum non.<\\\/p>\",\"about\":\"<p>Sed aspernatur inventore tenetur eius ut exercitationem repellendus. Tempore neque cupiditate quisquam facilis adipisci qui. Vitae quo numquam totam quisquam id iusto praesentium voluptatem.\\n\\nUnde aliquid nisi consequatur culpa consectetur doloremque eos. Sapiente qui quod ullam. Ex explicabo quibusdam non perferendis vel earum quaerat.\\n\\nId aut nostrum dolorum laudantium in nihil nesciunt. Accusamus exercitationem facere at cupiditate illo ex. Dolor molestias exercitationem dolor. Expedita saepe voluptatem alias beatae minus in commodi voluptatem.<\\\/p>\"},{\"id\":5,\"username\":\"Ms. Estell Spencer\",\"slug\":\"ms-estell-spencer\",\"email\":\"uschuppe@franecki.net\",\"password\":\"$2y$12$XdELOWJnG3jV2wTByYW9t.mfwFq8PtV2flRyJcM9X1SqmLiurfMzq\",\"token\":null,\"confirmation_token\":null,\"delete_token\":null,\"google_id\":null,\"google_token\":null,\"google_refresh_token\":null,\"ip\":null,\"create_at\":null,\"update_at\":null,\"validate_at\":\"1982-04-10 00:00:00\",\"delete_at\":null,\"lastlogin_at\":null,\"post\":null,\"bio\":\"<p>Quos consequatur aut aliquam quo dolor molestiae. Pariatur et alias aut. Perspiciatis et sint dolorem quis sunt necessitatibus. Quia laboriosam laudantium ut. Est exercitationem provident ipsum qui tempore in.\\n\\nNon iure neque minima exercitationem in. Minus veritatis vero exercitationem molestiae eaque placeat molestiae. Ut tenetur repellat in amet.\\n\\nRerum accusamus ullam minus illo. Ad optio delectus quo asperiores provident consequatur perferendis.<\\\/p>\",\"about\":\"<p>Sequi eius voluptatibus tenetur qui est quidem. Doloremque harum molestias autem dicta quae tempore. Illum non aut error ut alias iusto.\\n\\nAccusantium dolores architecto necessitatibus inventore et repellendus quia. Vitae numquam temporibus iste consequatur.\\n\\nUt inventore alias aliquam accusamus nihil a officia. Commodi esse impedit ipsam non nostrum consequatur. Alias sit eaque et nostrum voluptatem ut perferendis. Aspernatur repellendus non quae sunt est minus vero.<\\\/p>\"},{\"id\":6,\"username\":\"Mr. Emerald Lynch\",\"slug\":\"mr-emerald-lynch\",\"email\":\"yhills@yahoo.com\",\"password\":\"$2y$12$f74FF4Wm1v5z5QiWNQ9EvOhF\\\/VmObwpFSqAevMm84PnT29PGFfC9.\",\"token\":null,\"confirmation_token\":null,\"delete_token\":null,\"google_id\":null,\"google_token\":null,\"google_refresh_token\":null,\"ip\":null,\"create_at\":null,\"update_at\":null,\"validate_at\":\"1972-10-04 00:00:00\",\"delete_at\":null,\"lastlogin_at\":null,\"post\":null,\"bio\":\"<p>Et in placeat temporibus sint veniam. Quo nulla pariatur ea est eveniet facere aut. Omnis repudiandae perspiciatis perferendis eos corrupti.\\n\\nA odio est dicta cumque dolores. Veniam dolor fugiat qui voluptas ullam est corrupti nemo. Est ut quia mollitia quia commodi incidunt doloribus.\\n\\nRerum sunt deleniti consectetur similique dolorum commodi itaque totam. Illum tempore omnis deleniti alias ut. Debitis aut corporis explicabo et sit eligendi. Quos odio quam repellendus vel perspiciatis aut ex.<\\\/p>\",\"about\":\"<p>Dignissimos rerum reprehenderit est laborum eum blanditiis. Quod fugiat sunt praesentium sequi fugit. Sit repellendus nam dolorem. Dolorem exercitationem occaecati est voluptates fugiat qui dolores rerum.\\n\\nVoluptatum id praesentium et reprehenderit delectus et. Beatae modi qui nostrum recusandae tempora quae. Eos aut sunt aliquid architecto ea in eligendi animi.\\n\\nSed iste nisi sequi explicabo natus. Impedit in aut cupiditate est distinctio recusandae. Ipsum laborum pariatur in ullam.<\\\/p>\"},{\"id\":7,\"username\":\"Ms. Elody Kessler V\",\"slug\":\"ms-elody-kessler-v\",\"email\":\"sanford.noemie@hotmail.com\",\"password\":\"$2y$12$JfZHVOESfM6kIAQvx.r0Ge0H0xXKBCCvwJKiOE3KV.l6Oznpf2mJe\",\"token\":null,\"confirmation_token\":null,\"delete_token\":null,\"google_id\":null,\"google_token\":null,\"google_refresh_token\":null,\"ip\":null,\"create_at\":null,\"update_at\":null,\"validate_at\":\"2008-10-17 00:00:00\",\"delete_at\":null,\"lastlogin_at\":null,\"post\":null,\"bio\":\"<p>Numquam fuga quia nulla sint sunt eum laudantium. Ratione deserunt reiciendis hic velit amet. Ea porro odit eaque quo modi dolore molestiae. Qui ratione reiciendis corrupti expedita fugit iste quisquam.\\n\\nRepellendus labore iste odio dolor numquam ut eveniet. Quia ea nesciunt quibusdam eligendi aperiam. Necessitatibus consequuntur ratione tempora amet sapiente placeat rerum. Aliquid vel sint fugiat minus ut nihil omnis. Fugiat tempore omnis est animi architecto odio nemo.\\n\\nRecusandae enim consequatur dolores occaecati laborum. Sed voluptates et ratione soluta libero architecto consectetur. Rem repellat vel ratione omnis sed recusandae consequatur. Facere quas libero id consequuntur dolorum vero ex omnis.<\\\/p>\",\"about\":\"<p>Ab error voluptatem unde dolorum laudantium occaecati. Sit consequatur optio veniam ratione eos sint est. Ea officiis nihil quia incidunt saepe a. Esse temporibus dolorum dolorem labore. Rerum doloribus ut expedita recusandae sint tempore error et.\\n\\nNulla voluptatem qui fugit enim. Nihil quas porro vitae enim. Quis a quis sunt libero nemo voluptates laudantium. Aut consequatur quia autem rerum esse et dolorem. Sit consequuntur officiis sapiente nostrum aut odit.\\n\\nIure modi tempore repellendus non perspiciatis deserunt. Aut sed quis fugit.<\\\/p>\"},{\"id\":8,\"username\":\"Prof. Ahmed Kub Jr.\",\"slug\":\"prof-ahmed-kub-jr\",\"email\":\"rubye.sawayn@gmail.com\",\"password\":\"$2y$12$\\\/dKAb5MHErU42WGSXyzDt.YOYmFyf7Q7uWkh9q7Q2kRVl1taby102\",\"token\":null,\"confirmation_token\":null,\"delete_token\":null,\"google_id\":null,\"google_token\":null,\"google_refresh_token\":null,\"ip\":null,\"create_at\":null,\"update_at\":null,\"validate_at\":\"1974-10-05 00:00:00\",\"delete_at\":null,\"lastlogin_at\":null,\"post\":null,\"bio\":\"<p>Id libero ipsum sunt soluta voluptate occaecati. Esse inventore distinctio optio ab velit debitis culpa. Nihil ut nemo numquam consequatur eum adipisci.\\n\\nCumque esse dignissimos qui quaerat adipisci. Voluptatum assumenda rem reprehenderit dolores voluptas debitis. Sed doloribus sit pariatur provident hic saepe. Pariatur consequuntur ut autem mollitia aliquid. Quasi nihil dolore omnis qui consequatur dolores.\\n\\nEnim voluptatem enim voluptatem quasi. Rerum quis rerum aspernatur sint. Facere recusandae fugiat consequatur et nesciunt aut odio. Sequi officia dolor velit est.<\\\/p>\",\"about\":\"<p>Vitae dolores corrupti minima saepe voluptatem ad. Odit non et vel officia. Quaerat perferendis ipsum explicabo. Numquam rem dolorem voluptates quo aut provident vel. Architecto et odit laboriosam voluptas.\\n\\nIure iste explicabo magni et minus. Distinctio laboriosam placeat ipsam eius. Et sapiente excepturi perspiciatis et itaque molestias mollitia vel.\\n\\nDolore exercitationem quasi atque quo neque ea optio. Molestiae molestiae ut inventore eos. Repellat enim doloremque laborum. Sit a ducimus vero vel.<\\\/p>\"},{\"id\":9,\"username\":\"Lourdes Conn II\",\"slug\":\"lourdes-conn-ii\",\"email\":\"elouise.mclaughlin@hotmail.com\",\"password\":\"$2y$12$\\\/KdSHxVwMb7N8a.FnIWRZ.vA1hTW4.WXlWcH.V62lQUam62zg2FC2\",\"token\":null,\"confirmation_token\":null,\"delete_token\":null,\"google_id\":null,\"google_token\":null,\"google_refresh_token\":null,\"ip\":null,\"create_at\":null,\"update_at\":null,\"validate_at\":\"2022-01-26 00:00:00\",\"delete_at\":null,\"lastlogin_at\":null,\"post\":null,\"bio\":\"<p>Sit unde quod vel neque. Et consequatur sint velit corrupti vel corrupti eligendi consequatur. Recusandae libero cupiditate quia cum quia similique. Soluta et quaerat id vero consequatur sunt qui quia. Doloribus voluptatum dolorem doloremque officia eum.\\n\\nVeniam perspiciatis id necessitatibus eligendi omnis. Magni eveniet sunt dolorum blanditiis magnam sed. Eos nisi similique et nostrum dicta quia sit.\\n\\nConsequuntur tenetur et nihil omnis. Rerum dolorem blanditiis tempora quia perspiciatis. Repellat sit voluptas quo culpa nemo porro. Beatae molestiae voluptatem culpa mollitia sed dicta.<\\\/p>\",\"about\":\"<p>Aspernatur officia a repudiandae quibusdam et repellat. Eum minima et repellat culpa. A sed quam perferendis explicabo architecto minima dolorum. Quaerat quam temporibus sapiente sunt aut. Aut magni quo aut non omnis.\\n\\nEst alias enim accusantium eius et. Reprehenderit aut laborum est error est molestias. Atque facere numquam et cum qui facilis eveniet. Eum cum doloribus amet. Soluta dolores sunt cumque et.\\n\\nTemporibus qui nam quod tenetur sint vitae amet omnis. Commodi temporibus et molestiae aut voluptatem autem. Architecto impedit dolore voluptate et ut et quo.<\\\/p>\"},{\"id\":10,\"username\":\"Prof. Cole Kiehn\",\"slug\":\"prof-cole-kiehn\",\"email\":\"zschulist@steuber.com\",\"password\":\"$2y$12$HXb6GdcCuAuQC7cswNeAmug5VQyBswDfMIZU1FRls2y8Ad9tA2bG2\",\"token\":null,\"confirmation_token\":null,\"delete_token\":null,\"google_id\":null,\"google_token\":null,\"google_refresh_token\":null,\"ip\":null,\"create_at\":null,\"update_at\":null,\"validate_at\":\"1991-02-14 00:00:00\",\"delete_at\":null,\"lastlogin_at\":null,\"post\":null,\"bio\":\"<p>Repellat voluptatem molestias quas animi aliquid et consequuntur. Nulla libero ipsum consequuntur eum. Asperiores ea vel voluptatem dicta esse officia. Sit earum ut molestiae hic. Quidem officia omnis in temporibus id blanditiis ut.\\n\\nAut ut odit aut. Alias natus vel inventore nam quas fugit voluptas. Dolor et ex voluptas sed voluptatibus error.\\n\\nFuga omnis et vitae atque sed rerum. Voluptas ea aut enim deserunt voluptates dolorum. Alias quae doloribus fugit rerum.<\\\/p>\",\"about\":\"<p>Ad officiis odio voluptate vitae omnis corrupti dolorum. At consequuntur inventore sit laudantium.\\n\\nDolorum occaecati illo repellendus quidem nobis odio consequatur. Nam quibusdam quisquam expedita. Dolores rerum voluptate ad odio aut ut. Tempore qui libero eos inventore eos sit.\\n\\nOfficia ipsam et officiis quod delectus quae assumenda. Voluptate blanditiis qui eos iure perferendis ea. Velit corporis quidem ut quo odit nostrum temporibus. Voluptatem itaque perferendis id sed minima aliquid ipsam porro. Ipsa esse harum sapiente odio consequatur.<\\\/p>\"},{\"id\":11,\"username\":\"Jazmin Feest\",\"slug\":\"jazmin-feest\",\"email\":\"presley.hettinger@bogisich.com\",\"password\":\"$2y$12$5beX3DR82Y3nwMy7JC6FL.G8c3ZfXViS.BspZvyalTFSGECT4x\\\/eK\",\"token\":null,\"confirmation_token\":null,\"delete_token\":null,\"google_id\":null,\"google_token\":null,\"google_refresh_token\":null,\"ip\":null,\"create_at\":null,\"update_at\":null,\"validate_at\":\"2012-03-10 00:00:00\",\"delete_at\":null,\"lastlogin_at\":null,\"post\":null,\"bio\":\"<p>Nemo harum occaecati soluta eos sapiente repellat. Sequi ut est nulla aut sunt aut. Omnis illo fuga aut.\\n\\nLaborum voluptas est consequatur est. Sed voluptas iste itaque ipsa molestiae similique. Quia dolores omnis iure in qui.\\n\\nLaborum eos ipsam doloremque perferendis neque dolorum hic distinctio. Quas et facere voluptatem. Quos molestias consequatur voluptatem sed illum.<\\\/p>\",\"about\":\"<p>Quam exercitationem aut eveniet. Expedita non aut cumque aut.\\n\\nEnim nihil quidem non quas perspiciatis. Ut tempora et vero similique illum architecto. Mollitia tempore fugiat laudantium minus et. Minima et sed est dolor. Sit assumenda rerum commodi sunt amet dolorum.\\n\\nCulpa repellat minus facilis voluptatum quas. Esse est labore voluptates modi pariatur eos. Unde voluptas quas sequi assumenda qui iusto neque consequuntur. Ratione quis aut doloribus a iusto dolore libero.<\\\/p>\"},{\"id\":12,\"username\":\"Curt Pacocha\",\"slug\":\"curt-pacocha\",\"email\":\"bjakubowski@mcglynn.com\",\"password\":\"$2y$12$7qG3eicK0SJEhU\\\/.wv5p0eAhK4oF9HvbirVvfYteSwuG1NdWdeia6\",\"token\":null,\"confirmation_token\":null,\"delete_token\":null,\"google_id\":null,\"google_token\":null,\"google_refresh_token\":null,\"ip\":null,\"create_at\":null,\"update_at\":null,\"validate_at\":\"1991-04-10 00:00:00\",\"delete_at\":null,\"lastlogin_at\":null,\"post\":null,\"bio\":\"<p>Neque iure et non consequatur hic. Excepturi suscipit et error adipisci perspiciatis praesentium aliquid non. Amet repellat iste labore ut culpa ut.\\n\\nDolores cum molestiae enim ipsum distinctio rem et ex. Odio dolores autem aliquam commodi aut.\\n\\nDolores culpa ab molestiae ex. Qui officia aut est accusamus aperiam a voluptas cum. Odio similique odit est aspernatur minus.<\\\/p>\",\"about\":\"<p>Facere beatae praesentium quis nobis labore id. Nam nobis voluptas consequatur nisi. Non sequi esse sit sit consequuntur.\\n\\nAut tempora vel deleniti nobis numquam autem delectus. Iste repellendus doloremque et asperiores. Velit voluptate veritatis impedit voluptatem qui excepturi. Facilis iste delectus dolorum molestias rerum qui.\\n\\nQui praesentium ullam libero molestiae. Aut culpa facere aut doloremque iusto distinctio rem.<\\\/p>\"},{\"id\":13,\"username\":\"Myrtis Schimmel\",\"slug\":\"myrtis-schimmel\",\"email\":\"jaylan22@vonrueden.com\",\"password\":\"$2y$12$y1T\\\/QTnldi1JFZb5J.uoL.WrNEV5yuzzvjJSRM3TbXZW6gldbZhvu\",\"token\":null,\"confirmation_token\":null,\"delete_token\":null,\"google_id\":null,\"google_token\":null,\"google_refresh_token\":null,\"ip\":null,\"create_at\":null,\"update_at\":null,\"validate_at\":\"1995-10-20 00:00:00\",\"delete_at\":null,\"lastlogin_at\":null,\"post\":null,\"bio\":\"<p>Autem in consectetur sit non sit non. Illum totam consequatur rerum excepturi molestias et. Ratione et qui illo sint et qui velit. Quo est repellat aut culpa natus.\\n\\nVero ut quo ut laborum atque modi. Cum corporis et esse vero culpa. Dolorem aspernatur quibusdam et quo. Maxime quasi qui delectus unde explicabo alias.\\n\\nDistinctio id voluptatem voluptatem vel. Repudiandae impedit corrupti nisi quos quos nihil quos. Eveniet sit cum sint qui ipsum commodi consequuntur.<\\\/p>\",\"about\":\"<p>Autem nulla quam earum ratione. Eum et porro numquam est doloribus esse. Distinctio autem autem pariatur sit reiciendis libero in hic.\\n\\nNobis sed quod voluptatibus ratione. Vel qui tempore laudantium cum. Qui mollitia nulla possimus veritatis autem blanditiis. Minus quia possimus velit eaque dicta minus.\\n\\nNihil ducimus molestias vero aliquid deserunt laboriosam cupiditate. Libero voluptatem doloribus molestiae quisquam minima. Et sed rerum deserunt a.<\\\/p>\"},{\"id\":14,\"username\":\"Isabella Kihn\",\"slug\":\"isabella-kihn\",\"email\":\"msteuber@schimmel.com\",\"password\":\"$2y$12$Tl2TeYI\\\/858UkHwq3Mq4H.gfquba5gP5N0vyX8wENykYT08O07BF2\",\"token\":null,\"confirmation_token\":null,\"delete_token\":null,\"google_id\":null,\"google_token\":null,\"google_refresh_token\":null,\"ip\":null,\"create_at\":null,\"update_at\":null,\"validate_at\":\"2020-09-14 00:00:00\",\"delete_at\":null,\"lastlogin_at\":null,\"post\":null,\"bio\":\"<p>Libero cupiditate dicta ea cumque. Ducimus nam similique vel adipisci aut sint quia laudantium. Reiciendis inventore quae et. Et ut modi sequi impedit consequuntur voluptatem necessitatibus.\\n\\nError quo quis minus modi iure maxime. Molestias sunt sequi autem ut. Ipsum qui qui quas dicta itaque in. Vel necessitatibus voluptas ut fuga.\\n\\nMagnam consequatur sunt cum sint ab. Aliquam laudantium ullam sunt totam. Tempora atque et cum expedita sed.<\\\/p>\",\"about\":\"<p>Tenetur eum rerum eius quasi dolorum doloribus. Possimus excepturi incidunt voluptatem eos molestiae. Et sed accusantium perferendis et accusamus. Eius accusantium ad debitis minus veniam quis.\\n\\nOccaecati voluptatem tenetur error molestiae. Suscipit et rem rerum et ullam. Fuga et repudiandae qui nulla voluptas. Soluta quo officia at exercitationem velit incidunt.\\n\\nNisi quos id culpa. Aspernatur autem labore distinctio optio. Aut tempore aut at officiis perspiciatis sapiente amet. Quaerat corrupti nihil perferendis.<\\\/p>\"},{\"id\":15,\"username\":\"Jamarcus Herman\",\"slug\":\"jamarcus-herman\",\"email\":\"fcremin@hotmail.com\",\"password\":\"$2y$12$aEuO4.SHUz7B9uckptYkxeOG2eQlp0Gr19.noX15P\\\/0XoXSzx\\\/haG\",\"token\":null,\"confirmation_token\":null,\"delete_token\":null,\"google_id\":null,\"google_token\":null,\"google_refresh_token\":null,\"ip\":null,\"create_at\":null,\"update_at\":null,\"validate_at\":\"1971-03-13 00:00:00\",\"delete_at\":null,\"lastlogin_at\":null,\"post\":null,\"bio\":\"<p>Aliquid nemo veniam modi et sint modi eos officiis. Quae et repudiandae repudiandae neque. Delectus dolores accusantium qui incidunt. Inventore laboriosam nemo totam est consequatur velit.\\n\\nArchitecto molestiae aliquam et praesentium quis repellat. Qui et inventore tenetur voluptatem quos ab. Distinctio voluptate esse quod dolores nihil. Quis tenetur reprehenderit dignissimos itaque doloremque neque.\\n\\nDeleniti qui facilis fuga quia. Dolores dicta ab impedit minus aut at velit. Impedit alias temporibus est. In a dignissimos veritatis est ducimus officiis quidem.<\\\/p>\",\"about\":\"<p>Voluptatibus voluptatem quia ut exercitationem animi. Assumenda quia et et praesentium enim perferendis blanditiis. Alias tenetur tempora cupiditate autem molestiae molestias exercitationem.\\n\\nExcepturi vitae eveniet quasi accusantium. Eum impedit eaque delectus quos et dolorem iste. Est repellat eius ducimus atque autem vitae qui. Recusandae non exercitationem veniam atque.\\n\\nDolorem voluptatibus sapiente ipsa iusto fugit. Quis aliquid sit reprehenderit quisquam. Quod modi doloribus veritatis suscipit omnis quia totam.<\\\/p>\"}],\"first_page_url\":\"http:\\\/\\\/localhost\\\/api\\\/users?page=1\",\"from\":1,\"last_page\":3,\"last_page_url\":\"http:\\\/\\\/localhost\\\/api\\\/users?page=3\",\"links\":[{\"url\":null,\"label\":\"&laquo; Previous\",\"active\":false},{\"url\":\"http:\\\/\\\/localhost\\\/api\\\/users?page=1\",\"label\":\"1\",\"active\":true},{\"url\":\"http:\\\/\\\/localhost\\\/api\\\/users?page=2\",\"label\":\"2\",\"active\":false},{\"url\":\"http:\\\/\\\/localhost\\\/api\\\/users?page=3\",\"label\":\"3\",\"active\":false},{\"url\":\"http:\\\/\\\/localhost\\\/api\\\/users?page=2\",\"label\":\"Next &raquo;\",\"active\":false}],\"next_page_url\":\"http:\\\/\\\/localhost\\\/api\\\/users?page=2\",\"path\":\"http:\\\/\\\/localhost\\\/api\\\/users\",\"per_page\":15,\"prev_page_url\":null,\"to\":15,\"total\":32}",
                            "name": ""
                        }
                    ]
                }
            ]
        }
    ],
    "auth": {
        "type": "noauth"
    }
}